<?xml version="1.0" encoding="utf-8"?>
<!-- Generator: Adobe Illustrator 21.1.0, SVG Export Plug-In . SVG Version: 6.00 Build 0)  -->
<svg version="1.1" id="Layer_1" xmlns="http://www.w3.org/2000/svg" xmlns:xlink="http://www.w3.org/1999/xlink" x="0px" y="0px"
	 viewBox="0 0 507 381.9" style="enable-background:new 0 0 507 381.9;" xml:space="preserve">
<style type="text/css">
	.st0{fill:#939598;}
	.st1{fill:none;stroke:#ED1C24;stroke-miterlimit:10;}
	.st2{fill:#29ABE2;}
	.st3{fill:#010101;}
	.st4{fill:#59483B;}
</style>
<g>
	<path class="st0" d="M55.4,374.4l-5.5-15.7h4.5l3.2,10.4l3.2-10.4h4.3l-5.5,15.7H55.4z"/>
	<path class="st0" d="M66.9,356.8v-3.9h4v3.9H66.9z M66.9,374.4v-15.7h4v15.7H66.9z"/>
	<path class="st0" d="M82.6,363.5c-0.2-1.4-1-2.1-2.7-2.1c-1.6,0-2.5,0.4-2.5,1.3c0,0.9,0.9,1.3,2.5,1.8c5.3,1.5,7.1,1.8,7.1,5.5
		c0,2.8-2.3,4.9-6.8,4.9c-4.4,0-7.2-2.1-7.3-5.5h4.2c0,1.5,1.3,2.3,3.1,2.3c1.5,0,2.8-0.5,2.8-1.5c0-1.2-0.8-1.5-2.5-1.9
		c-5.9-1.3-7-2.9-7-5.6c0-2.4,1.8-4.4,6.6-4.4c4.4,0,6.3,2,6.5,5.2H82.6z"/>
	<path class="st0" d="M98.7,374.4v-2.2c-1.1,1.8-2.6,2.6-4.8,2.6c-3,0-5.2-2.3-5.2-5.8v-10.4h4v9.7c0,2,0.9,2.9,2.6,2.9
		c2.1,0,3.1-1.5,3.1-3.6v-9.1h4v15.7H98.7z"/>
	<path class="st0" d="M114.4,374.4c-0.1-0.4-0.2-0.9-0.2-1.4c-1,1.1-2.6,1.8-4.6,1.8c-3.5,0-5.1-1.8-5.1-4.3c0-4.5,3-5,7-5.6
		c2-0.3,2.6-0.7,2.6-1.8c0-1-1-1.6-2.6-1.6c-1.8,0-2.6,0.9-2.8,2.3H105c0.1-3.3,1.8-5.5,6.7-5.5c4.8,0,6.5,2.2,6.5,6.2v9.9H114.4z
		 M114.2,366.7c-0.4,0.4-1.1,0.6-2.6,0.9c-2.3,0.4-3,1.1-3,2.5c0,1.2,0.7,1.8,2,1.8c2.1,0,3.6-1.6,3.7-3.4L114.2,366.7z"/>
	<path class="st0" d="M120.6,374.4v-21.5h4v21.5H120.6z"/>
	<path class="st0" d="M127.1,356.8v-3.9h4v3.9H127.1z M127.1,374.4v-15.7h4v15.7H127.1z"/>
	<path class="st0" d="M133.1,374.4v-3.2l7.8-9.2h-7.3v-3.3H146v3.4l-7.8,9h8v3.4H133.1z"/>
	<path class="st0" d="M151.7,367.7c0.1,2.4,1.4,3.9,3.4,3.9c1.3,0,2.5-0.7,2.7-1.8h4.2c-0.9,3.2-3.4,5.1-6.7,5.1
		c-5.1,0-7.6-2.9-7.6-8.6c0-4.9,2.7-8,7.4-8c4.7,0,7.2,3.1,7.2,9.4H151.7z M158.1,365c-0.1-2.3-1.6-3.5-3.1-3.5
		c-1.6,0-3,1.3-3.1,3.5H158.1z"/>
	<path class="st0" d="M182.5,372.4c-0.6,1.4-2.2,2.2-4.1,2.2c-3.2,0-5.6-2.2-5.6-5.7v-10.2h4v9.6c0,2,0.9,2.9,2.6,2.9
		c1.8,0,3.1-1.2,3.1-2.9v-9.6h4v16.1c0,4.4-3.1,7-7,7c-4.5,0-6.7-2.5-6.7-6.6h3.8c0,1.9,1.1,3,3.2,3c1.5,0,2.8-1.3,2.8-3.4V372.4z"
		/>
	<path class="st0" d="M188.5,366.6c0-5,3-8.3,7.9-8.3c4.8,0,7.8,3.3,7.8,8.3c0,5-3,8.3-7.8,8.3C191.5,374.8,188.5,371.5,188.5,366.6
		z M200.1,366.6c0-3.2-1.2-4.8-3.7-4.8s-3.7,1.6-3.7,4.8c0,3.2,1.2,4.8,3.7,4.8S200.1,369.8,200.1,366.6z"/>
	<path class="st0" d="M216.2,374.4v-2.2c-1.1,1.8-2.6,2.6-4.8,2.6c-3,0-5.2-2.3-5.2-5.8v-10.4h4v9.7c0,2,0.9,2.9,2.6,2.9
		c2,0,3.1-1.5,3.1-3.6v-9.1h4v15.7H216.2z"/>
	<path class="st0" d="M222.4,374.4v-15.7h3.8v1.9c1.3-2.1,2.9-2.3,4.5-2.3h0.5v4.3c-0.4-0.1-0.7-0.1-1.1-0.1c-2.5,0-3.7,1.3-3.7,3.8
		v8.2H222.4z"/>
	<path class="st0" d="M241.4,374.4v-21.5h4v7.8c1.2-1.7,2.6-2.5,4.5-2.5c3.9,0,6.3,3.4,6.3,8.1c0,5.3-2.8,8.4-6.6,8.4
		c-1.9,0-3.3-0.7-4.3-2.3l0,1.9H241.4z M252.1,366.7c0-3.2-1.1-4.9-3.5-4.9c-2.2,0-3.4,1.7-3.4,5.1c0,2.7,1.5,4.5,3.4,4.5
		C250.7,371.5,252.1,369.5,252.1,366.7z"/>
	<path class="st0" d="M268.3,374.4v-2.2c-1.1,1.8-2.6,2.6-4.8,2.6c-3,0-5.2-2.3-5.2-5.8v-10.4h4v9.7c0,2,0.9,2.9,2.6,2.9
		c2.1,0,3.1-1.5,3.1-3.6v-9.1h4v15.7H268.3z"/>
	<path class="st0" d="M283.7,363.5c-0.2-1.4-1-2.1-2.7-2.1c-1.6,0-2.5,0.4-2.5,1.3c0,0.9,0.9,1.3,2.5,1.8c5.3,1.5,7.1,1.8,7.1,5.5
		c0,2.8-2.3,4.9-6.8,4.9c-4.4,0-7.2-2.1-7.3-5.5h4.2c0,1.5,1.3,2.3,3.1,2.3c1.5,0,2.8-0.5,2.8-1.5c0-1.2-0.8-1.5-2.5-1.9
		c-5.9-1.3-7-2.9-7-5.6c0-2.4,1.8-4.4,6.6-4.4c4.4,0,6.3,2,6.5,5.2H283.7z"/>
	<path class="st0" d="M289.8,356.8v-3.9h4v3.9H289.8z M289.8,374.4v-15.7h4v15.7H289.8z"/>
	<path class="st0" d="M306.2,374.4v-9.5c0-2.4-0.7-3.1-2.6-3.1c-2.1,0-3.1,1.2-3.1,3.6v9h-4v-15.7h3.9v2.3c0.9-1.8,2.5-2.7,4.9-2.7
		c2.9,0,5.1,1.8,5.1,5.2v10.9H306.2z"/>
	<path class="st0" d="M316.3,367.7c0.1,2.4,1.4,3.9,3.4,3.9c1.3,0,2.5-0.7,2.7-1.8h4.2c-0.9,3.2-3.4,5.1-6.7,5.1
		c-5.1,0-7.6-2.9-7.6-8.6c0-4.9,2.7-8,7.4-8c4.7,0,7.2,3.1,7.2,9.4H316.3z M322.7,365c-0.1-2.3-1.6-3.5-3.1-3.5
		c-1.6,0-3,1.3-3.1,3.5H322.7z"/>
	<path class="st0" d="M338.1,363.5c-0.2-1.4-1-2.1-2.7-2.1c-1.6,0-2.5,0.4-2.5,1.3c0,0.9,0.9,1.3,2.5,1.8c5.3,1.5,7.1,1.8,7.1,5.5
		c0,2.8-2.3,4.9-6.8,4.9c-4.4,0-7.2-2.1-7.3-5.5h4.2c0,1.5,1.3,2.3,3.1,2.3c1.5,0,2.8-0.5,2.8-1.5c0-1.2-0.8-1.5-2.5-1.9
		c-5.9-1.3-7-2.9-7-5.6c0-2.4,1.8-4.4,6.6-4.4c4.4,0,6.3,2,6.5,5.2H338.1z"/>
	<path class="st0" d="M353.3,363.5c-0.2-1.4-1-2.1-2.7-2.1c-1.6,0-2.5,0.4-2.5,1.3c0,0.9,0.9,1.3,2.5,1.8c5.3,1.5,7.1,1.8,7.1,5.5
		c0,2.8-2.3,4.9-6.8,4.9c-4.4,0-7.2-2.1-7.3-5.5h4.2c0,1.5,1.3,2.3,3.1,2.3c1.5,0,2.8-0.5,2.8-1.5c0-1.2-0.8-1.5-2.5-1.9
		c-5.9-1.3-7-2.9-7-5.6c0-2.4,1.8-4.4,6.6-4.4c4.4,0,6.3,2,6.5,5.2H353.3z"/>
	<path class="st0" d="M359.3,377.8c1.6-0.4,2.4-1.4,2.4-3.4h-2.4v-4.3h4.3v3.3c0,3.6-1.1,5.3-4.3,6V377.8z"/>
	<path class="st0" d="M374,366.6c0-5,3-8.3,7.9-8.3c4.8,0,7.8,3.3,7.8,8.3c0,5-3,8.3-7.8,8.3C376.9,374.8,374,371.5,374,366.6z
		 M385.6,366.6c0-3.2-1.2-4.8-3.7-4.8c-2.5,0-3.7,1.6-3.7,4.8c0,3.2,1.2,4.8,3.7,4.8C384.3,371.4,385.6,369.8,385.6,366.6z"/>
	<path class="st0" d="M401.5,374.4v-9.5c0-2.4-0.7-3.1-2.6-3.1c-2.1,0-3.1,1.2-3.1,3.6v9h-4v-15.7h3.9v2.3c0.9-1.8,2.5-2.7,4.9-2.7
		c2.9,0,5.1,1.8,5.1,5.2v10.9H401.5z"/>
	<path class="st0" d="M408,374.4v-21.5h4v21.5H408z"/>
	<path class="st0" d="M414.5,356.8v-3.9h4v3.9H414.5z M414.5,374.4v-15.7h4v15.7H414.5z"/>
	<path class="st0" d="M430.8,374.4v-9.5c0-2.4-0.7-3.1-2.6-3.1c-2.1,0-3.1,1.2-3.1,3.6v9h-4v-15.7h3.9v2.3c0.9-1.8,2.5-2.7,4.9-2.7
		c2.9,0,5.1,1.8,5.1,5.2v10.9H430.8z"/>
	<path class="st0" d="M440.9,367.7c0.1,2.4,1.4,3.9,3.4,3.9c1.3,0,2.5-0.7,2.7-1.8h4.2c-0.9,3.2-3.4,5.1-6.7,5.1
		c-5.1,0-7.6-2.9-7.6-8.6c0-4.9,2.7-8,7.4-8c4.7,0,7.2,3.1,7.2,9.4H440.9z M447.3,365c-0.1-2.3-1.6-3.5-3.1-3.5
		c-1.6,0-3,1.3-3.1,3.5H447.3z"/>
	<path class="st0" d="M452.8,374.4v-4.3h4.3v4.3H452.8z"/>
</g>
<g>
	<g>
		<path class="st1" d="M62.7,187.1"/>
		<g>
			<polygon class="st2" points="167.1,119.2 264.8,60.8 287.7,0.2 94.4,0.2 185.8,272 231,151.3 			"/>
			<polygon class="st3" points="258.8,77.2 190.1,118.4 235.1,140.8 			"/>
			<polygon class="st4" points="274.3,67.7 246.2,146.2 384.9,214.9 384.9,0 			"/>
		</g>
	</g>
	<g>
		<path class="st3" d="M184.7,334.7V324h-14.3v-4.1l14.2-37h5.6v36.6h3.1v4.5h-3.1v10.6H184.7z M184.8,295.1l-9.3,24.4h9.1
			L184.8,295.1z"/>
		<path class="st3" d="M10.7,333.8L0,257h8.3c2.5,19,7.2,57.3,8,64.6c0.8-7.4,5.7-45.6,8.6-64.6h8l-11.5,76.8H10.7z"/>
		<path class="st3" d="M41,333.8V257h8v76.8H41z"/>
		<path class="st3" d="M59.6,333.8V257h13.5c9.1,0,13.7,4.9,13.7,13.2v50.6c0,8.7-4.5,13.1-13.7,13.1H59.6z M78.8,270.3
			c0-3.8-1.9-6.1-5.7-6.1h-5.5v62.6h5.5c3.8,0,5.7-2.1,5.7-6.1V270.3z"/>
		<path class="st3" d="M96.5,333.8V257h22.9v7.2h-14.9v27h10.5v7.1h-10.5v28.6H120v7H96.5z"/>
		<path class="st3" d="M128,269.2c0-8.6,4.4-13.1,13.6-13.1c9.3,0,13.7,4.5,13.7,13.1v52.4c0,8.6-4.4,13.1-13.7,13.1
			c-9.2,0-13.6-4.5-13.6-13.1V269.2z M147.2,269.2c0-3.9-1.9-5.9-5.7-5.9c-3.7,0-5.6,2-5.6,5.9v52.4c0,4,1.9,6.1,5.6,6.1
			c3.8,0,5.7-2.1,5.7-6.1V269.2z"/>
		<path class="st3" d="M226.9,305.7h7.3v15.9c0,9-3.8,13.2-12.6,13.2c-9.1,0-13.8-4.3-13.8-13v-52.3c0-8.9,4.6-13.3,13.8-13.3
			c8.4,0,12.6,4.4,12.6,13.1v13.6h-7.3v-13.5c0-4.1-1.3-6-5.4-6c-3.8,0-5.7,2-5.7,6v52.3c0,4,1.9,6.1,5.7,6.1c3.9,0,5.4-2,5.4-6.1
			V305.7z"/>
		<path class="st3" d="M242.8,269.2c0-8.6,4.4-13.1,13.6-13.1c9.3,0,13.7,4.5,13.7,13.1v52.4c0,8.6-4.4,13.1-13.7,13.1
			c-9.1,0-13.6-4.5-13.6-13.1V269.2z M262.1,269.2c0-3.9-1.9-5.9-5.7-5.9c-3.7,0-5.6,2-5.6,5.9v52.4c0,4,1.9,6.1,5.6,6.1
			c3.8,0,5.7-2.1,5.7-6.1V269.2z"/>
		<path class="st3" d="M312.3,333.8v-23.2c0-11.2,0.1-22,0.2-33.2l-9.4,56.5h-7l-9.3-56.5c0.1,11.2,0.2,22,0.2,33.2v23.2h-7.4V257
			h10.7l9.1,60l9.1-60h11v76.8H312.3z"/>
		<path class="st3" d="M362.3,333.8v-23.2c0-11.2,0.1-22,0.2-33.2l-9.4,56.5h-7l-9.3-56.5c0.1,11.2,0.2,22,0.2,33.2v23.2h-7.4V257
			h10.7l9.1,60l9.1-60h11v76.8H362.3z"/>
		<path class="st3" d="M380,333.8V257h22.9v7.2H388v27h10.5v7.1H388v28.6h15.5v7H380z"/>
		<path class="st3" d="M432.4,333.8c-1.8-11.9-3.7-23.2-6.1-34.9c-0.7,0.1-1.2,0.1-1.9,0.1h-4.3v34.8h-8V257h13.1
			c10.1,0,15,3.7,15,13.8v15.3c0,5.6-2.1,9.3-6.4,11.3c2.8,12.2,5.2,24.5,7.3,36.4H432.4z M432.2,271.8c0-5.5-1.4-7.6-6.9-7.6h-5.2
			v28.4h5.3c4.9,0,6.8-2,6.8-6.3V271.8z"/>
		<path class="st3" d="M467,305.7h7.3v15.9c0,9-3.8,13.2-12.6,13.2c-9.1,0-13.8-4.3-13.8-13v-52.3c0-8.9,4.6-13.3,13.8-13.3
			c8.4,0,12.6,4.4,12.6,13.1v13.6H467v-13.5c0-4.1-1.3-6-5.4-6c-3.8,0-5.7,2-5.7,6v52.3c0,4,1.9,6.1,5.7,6.1c3.9,0,5.4-2,5.4-6.1
			V305.7z"/>
		<path class="st3" d="M483.6,333.8V257h22.9v7.2h-14.9v27h10.5v7.1h-10.5v28.6H507v7H483.6z"/>
	</g>
</g>
</svg>
